{
	"name": "Sligo",
	"description": "Sligo is a coastal seaport and the county town of County Sligo. Sligo is a historic, cultural, commercial, industrial, retail and service centre of regional importance in the West of Ireland. Served by rail, port and road links, Sligo exerts a significant influence on its hinterland.",
	"location": "Co. Sligo, Connaught, Ireland",
	"image": "sligo.jpg",
	"placesOfInterest": [
		{
			"name": "5th on Teeling Sligo",
			"description": "Sligo's premier over 21s venue dedicated to Live Music, DJs and Comedy! Live Entertainment every Friday and Saturday night till late.",
			"location": "5 Teeling St, Abbeyquarter North, Sligo"
		},
		{
			"name": "Clayton Hotel Sligo",
			"description": "Clayton Hotel Sligo is set on beautiful grounds, within walking distance from the bustling town of Sligo, only 2.5 hours from Dublin. This historic building also hosts two churches, Canis Major and Canis Minor for you to explore.",
			"location": "Clarion Road, Ballytivnan, Sligo"
		},
		{
			"name": "The Model",
			"description": "The Model, home of The Niland Collection, is one of Ireland’s leading contemporary arts centres. This award-winning building is home to the impressive Niland Collection of art, one of the most notable collections in Ireland and featuring works by John and Jack B. Yeats, Estella Solomons, Paul Henry and Louis Le LeBrocquy among others.",
			"location": "The Mall, Rathquarter, Sligo"
		}
	]
}
